case-study
…
#renaming columns for the join to the beer dataset
brewery=rename(brewery, Brewery_id=Brew_ID, Brewery=Name)

#join between brewery and beer data
beer_brewery = merge(x=brewery,y=beer,by="Brewery_id")

#filtering of NAs for ABV and IBU-- rows drop from 2410 down to 1405 for this filtering
#only use this filtered dataset for the questions related to ABV/IBU
beer_brewery <- beer_brewery %>% filter_at(vars(ABV,IBU),all_vars(!is.na(.)))

#5 which state has the maximum alcoholic (ABV) beer? which state has the most bitter (IBU) beer?
beer_brewery %>% merge(select(cnty, c("City", "State", "County","region")), by=c("City","State")) %>% 
  group_by(region) %>% summarise(max_ABV=max(ABV)) %>% arrange(desc(max_ABV))

## # A tibble: 49 x 2
##    region         max_ABV
##    <chr>            <dbl>
##  1 Kentucky         0.125
##  2 Indiana          0.12 
##  3 New York         0.1  
##  4 California       0.099
##  5 Colorado         0.099
##  6 Idaho            0.099
##  7 Massachusetts    0.099
##  8 Minnesota        0.099
##  9 New Jersey       0.099
## 10 North Carolina   0.099
## # ... with 39 more rows

beer_brewery %>% merge(select(cnty, c("City", "State", "County","region")), by=c("City","State")) %>% 
  group_by(region) %>% summarise(Most_Bitter=max(IBU)) %>% arrange(desc(Most_Bitter))

## # A tibble: 49 x 2
##    region        Most_Bitter
##    <chr>               <int>
##  1 Oregon                138
##  2 Virginia              135
##  3 Massachusetts         130
##  4 Ohio                  126
##  5 Minnesota             120
##  6 Vermont               120
##  7 Texas                 118
##  8 California            115
##  9 Indiana               115
## 10 Michigan              115
## # ... with 39 more rows
…
